_id,name,des,idman,status,maintenancetime,_class
ObjectId("5daeab58edc6ea05c87d29fb"),Drone 1,Drone quản lý số 1,5dae619dedc6ea05c87d29fa,Bad,""2019-10-21T17:00:00.000Z"",com.datn.drone.model.Drone
ObjectId("5dafcb9dd6941b5cb953816f"),Drone 2,Drone quản lý số 2,5dae619dedc6ea05c87d29fa,good,""2019-10-25T17:00:00.000Z"",com.datn.drone.model.Drone
ObjectId("5dafcbacd6941b5cb9538170"),Drone 3,Drone quản lý số 3,5dae619dedc6ea05c87d29fa,Bad,""2019-10-23T00:00:00.000Z"",com.datn.drone.model.Drone
ObjectId("5dafcc1bd6941b5cb9538171"),Drone 4,Drone quản lý số 4,5dae619dedc6ea05c87d29fa,Bad,""2019-10-22T17:00:00.000Z"",com.datn.drone.model.Drone
